data/1v 1khz.csv

#Digilent WaveForms Oscilloscope Acquisition
#Device Name: Discovery2
#Serial Number: SN:210321B81678
#Date Time: 2025-10-22 21:08:01.797
#Sample rate: 1.5873e+06Hz
#Samples: 8192
#Trigger: Source: Channel 2 Type: Edge Condition: Rising Level: -500 uV Hyst.: Auto HoldOff: 0 s
#Channel 1: Range: 500 mV/div Offset: 0 V Sample Mode: Average
#Channel 2: Range: 500 mV/div Offset: 0 V Sample Mode: Average
#Wavegen Channel 1: Running
#Mode: Simple
#Type: Sine
#Frequency: 1 kHz
#Period: 1 ms
#Amplitude: 1 V
#Offset: 0 V
#Symmetry: 50 %
#Phase: 0 °
#Power Supplies: ON
#Positive Supply: ON
#Voltage: 5 V
#Negative Supply: ON
#Voltage: -5 V

#2,4kHz
#raw
#
Time (s),Channel 1 (V),Channel 2 (V)
-0.0025800075,0.9941199344850333,0.4842566726417737
-0.0025793775,0.9931246998851044,0.4806169404194024
-0.0025787475,0.9947834242183196,0.4753227844595856
-0.0025781175,0.9941199344850334,0.4736683607221416
-0.0025774875,0.9944516793516764,0.4696977437522821
-0.0025768575,0.9937881896183902,0.4653962420349322
-0.002576227500000001,0.9941199344850332,0.4620873945600493
-0.0025755975,0.9941199344850333,0.4610947403175825
-0.0025749675,0.9924612101518179,0.457785892842698
-0.0025743375,0.9924612101518179,0.4534843911253501
-0.0025737075,0.993124699885104,0.4501755436504637
-0.0025730775,0.9917977204185318,0.4455431571856244
-0.0025724475,0.9921294652851748,0.4432269639532063
-0.0025718175,0.993124699885104,0.4376019232459027
-0.0025711875,0.9934564447517462,0.4346239605185046
-0.0025705575,0.9914659755518885,0.4299915740536684
-0.0025699275,0.9911342306852454,0.4280062655687378
-0.002569297500000001,0.9911342306852454,0.4250283028413431
-0.0025686675,0.9911342306852454,0.4213885706189688
-0.0025680375,0.9917977204185311,0.4184106078915703
-0.0025674075,0.9904707409519592,0.4127855671842692
-0.0025667775,0.989807251218673,0.4098076044568732
-0.0025661475,0.9901389960853157,0.4064987569819875
-0.0025655175,0.9894755063520299,0.4038516790020812
-0.0025648875,0.9888120166187437,0.4002119467797083
-0.002564257500000001,0.9868215474188859,0.3959104450623604
-0.0025636275,0.9881485268854575,0.3909471738500317
-0.0025629975,0.9874850371521713,0.386645672132681
-0.0025623675,0.9874850371521713,0.3846603636477512
-0.0025617375,0.9854945679523126,0.3820132856678437
-0.0025611075,0.9861580576855987,0.3773808992030039
-0.0025604775,0.9858263128189557,0.374072051728121
-0.0025598475,0.9858263128189557,0.3704323195057481
-0.002559217500000001,0.9848310782190269,0.3654690482934236
-0.0025585875,0.9838358436190972,0.3611675465760715
-0.0025579575,0.9831723538858109,0.358520468596164
-0.0025573275,0.9815136295525954,0.3562042753637448
-0.0025566975,0.9825088641525247,0.3522336583938835
-0.0025560675,0.9821771192858808,0.3472703871815551
-0.0025554375,0.9805183949526661,0.3436306549591839
-0.0025548075,0.9805183949526661,0.339329153241834
-0.002554177500000001,0.9805183949526661,0.3356894210194628
-0.0025535475,0.9795231603527368,0.3327114582920651
-0.0025529175,0.9781961808861643,0.3277481870797385
-0.0025522875,0.9778644360195212,0.3247702243523424
-0.0025516575,0.9765374565529489,0.3217922616249464
-0.0025510275,0.9758739668196615,0.3181525294025703
-0.0025503975,0.973551752753161,0.3112039497053161
-0.0025497675,0.9725565181532316,0.3105421802103392
-0.002549137500000001,0.9732200078865175,0.3072333327354562
-0.0025485075,0.9725565181532316,0.3029318310181049
-0.0025478775,0.9728882630198747,0.2982994445532667
-0.0025472475,0.97122953868666,0.295321481825872
-0.0025466175,0.970566048953373,0.2920126343509862
-0.0025459875,0.9695708143534429,0.2873802478861463
-0.0025453575,0.9679120900202282,0.283740515663775
-0.0025447275,0.9669168554202988,0.2794390139464252
-0.002544097500000001,0.9672486002869418,0.275799281724054
-0.0025434675,0.9665851105536557,0.2728213189966563
-0.0025428375,0.9649263862204402,0.2685198172793065
-0.0025422075,0.9645946413537972,0.263556546066982
-0.0025415775,0.964262896487154,0.2609094680870722
-0.0025409475,0.9616089375540089,0.2572697358646974
-0.0025403175,0.960945447820723,0.2529682341473495
-0.0025396875,0.960945447820723,0.2486667324299997
-0.002539057500000001,0.9596184683541511,0.2450270002076284
-0.0025384275,0.9582914888875782,0.2397328442478116
-0.0025377975,0.9563010196877195,0.2380784205103694
-0.0025371675,0.9556375299544336,0.2347695730354864
-0.0025365375,0.9549740402211471,0.2291445323281813
-0.0025359075,0.9539788056212171,0.2241812611158537
-0.0025352775,0.9523200812880023,0.222195952630924
-0.0025346475,0.951656591554716,0.2192179899035279
-0.0025340175,0.9509931018214296,0.2155782576811528
-0.0025333875,0.9503296120881437,0.2106149864688283
-0.0025327575,0.9473439082883557,0.2069752542464554
-0.002532127500000001,0.945685183955141,0.2030046372765958
-0.0025314975,0.945021694221854,0.1983722508117558
-0.0025308675,0.9443582044885677,0.1950634033368694
-0.0025302375,0.9440264596219247,0.1907619016195215
-0.0025296075,0.9420359904220661,0.1867912846496602
-0.0025289775,0.9403772660888501,0.1831515524272854
-0.0025283475,0.9393820314889213,0.1791809354574259
-0.0025277175,0.9387185417556351,0.1738867794976107
-0.002527087500000001,0.9373915622890632,0.1695852777802629
-0.0025264575,0.9367280725557764,0.1662764303053764
-0.0025258275,0.9340741136226316,0.1632984675779804
-0.0025251975,0.9330788790227023,0.1623058133355151
-0.0025245675,0.9314201546894868,0.1570116573756999
-0.0025239375,0.9304249200895567,0.1537028099008138
-0.0025233075,0.9287661957563419,0.1500630776784426
-0.0025226775,0.9271074714231264,0.1441071522236505
-0.002522047500000001,0.9251170022232686,0.1388129962638378
-0.0025214175,0.9237900227566954,0.1355041487889509
-0.0025207875,0.922463043290123,0.1328570708090434
-0.0025201575,0.9217995535568367,0.1272320301017398
-0.0025195275,0.9204725740902644,0.1229305283843899
-0.0025188975,0.9181503600237617,0.1186290266670397
-0.0025182675,0.916159890823904,0.1176363724245748
-0.0025176375,0.9148329113573316,0.1149892944446672
-0.002517007500000001,0.9141694216240457,0.1093642537373662
-0.0025163775,0.9125106972908299,0.1053936367675023
-0.0025157475,0.9108519729576143,0.1020847892926178
-0.0025151175,0.9098567383576854,0.09745240282778167
-0.0025144875,0.9075345242911833,0.09348178585791819
-0.0025138575,0.905875799957967,0.08918028414056628
-0.0025132275,0.9042170756247523,0.08454789767573015
-0.0025125975,0.9035535858914661,0.08024639595838035
-0.002511967500000001,0.9008996269583225,0.07759931797847398
-0.0025113375,0.9008996269583213,0.07263604676614607
-0.0025107075,0.8982456680251764,0.0686654297962847
-0.0025100775,0.8962551988253187,0.06634923656386663
-0.0025094475,0.8955917090920316,0.06270950434149267
-0.0025088175,0.8942647296254578,0.05873888737162905
-0.0025081875,0.8912790258256712,0.0537756161593046
-0.0025075575,0.8892885566258126,0.04914322969446635
-0.002506927500000001,0.8879615771592407,0.04451084322963021
-0.0025062975,0.8876298322925971,0.04120199575474363
-0.0025056675,0.884312383626166,0.03690049403739382
-0.0025050375,0.8819901695596655,0.03292987706753427
-0.0025044075,0.880994934959735,0.02929014484515955
-0.0025037775,0.8786727208932328,0.02598129737027328
-0.0025031475,0.8773457414266609,0.02201068040041372
-0.0025025175,0.8760187619600884,0.01770917868306392
-0.0025018875,0.8730330581603,0.01473121595566579
-0.0025012575,0.8717060786937281,0.01009882949082964
-0.0025006275,0.8687203748939402,0.006789982015945176
-0.002499997500000001,0.8677251402940113,0.002157595551109029
-0.0024993675,0.8654029262275091,-0.003136560408708224
-0.0024987375,0.8627489672943635,-0.006776292631082341
-0.0024981075,0.8607584980945057,-0.009423370610988711
-0.0024974775,0.8600950083612194,-0.0157101808132692
-0.0024968475,0.8584362840280031,-0.01968079778313176
-0.0024962175,0.8564458148281453,-0.02232787576303813
-0.0024955875,0.8544553456282867,-0.02497495374294571
-0.002494957500000001,0.8521331315617862,-0.02960734020778185
-0.0024943275,0.8508061520952126,-0.03291618768266842
-0.0024936975,0.8478204482954242,-0.03655591990504375
-0.0024930675,0.8468252136954953,-0.04185007586485649
-0.0024924375,0.8435077650290643,-0.04648246232969474
-0.0024918075,0.8415172958292049,-0.04979130980458087
-0.0024911775,0.8398585714959902,-0.05343104202695212
-0.0024905475,0.8375363574294884,-0.05773254374430192
-0.002489917500000001,0.8358776330962737,-0.06137227596667318
-0.0024892875,0.8335554190297711,-0.06600466243151309
-0.0024886575,0.8302379703633401,-0.0689826251589091
-0.0024880275,0.8289109908967678,-0.07196058788630513
-0.0024873975,0.8269205216969091,-0.07857828283607407
-0.0024867675,0.824930052497049,-0.0825488998059368
-0.0024861375,0.8216126038306195,-0.08552686253333144
-0.0024855075,0.8196221346307608,-0.08982836425068125
-0.002484877500000001,0.8179634102975462,-0.09313721172556422
-0.0024842475,0.8159729410976867,-0.09776959819040398
-0.0024836175,0.813650727031185,-0.1027328694027307
-0.0024829875,0.8109967680980401,-0.1047181778876614
-0.0024823575,0.8096697886314678,-0.1093505643524996
-0.0024817275,0.807015829698322,-0.1139829508173395
-0.0024810975,0.8050253604984643,-0.1176226830397108
-0.0024804675,0.8013761669653902,-0.119277106777153
-0.002479837500000001,0.7990539528988896,-0.1255639169794306
-0.0024792075,0.7967317388323867,-0.1292036492018064
-0.0024785775,0.7947412696325281,-0.1325124966766909
-0.0024779475,0.7920873106993844,-0.1368139983940387
-0.0024773175,0.7914238209660971,-0.1401228458689251
-0.0024766875,0.7884381171663077,-0.1437625780913005
-0.0024760575,0.7854524133665212,-0.1490567340511132
-0.0024754275,0.7837936890333057,-0.1546817747584168
-0.002474797500000001,0.780807985233519,-0.1583215069807881
-0.0024741675,0.7778222814337298,-0.1593141612232551
-0.0024735375,0.7755000673672281,-0.1626230086981395
-0.0024729075,0.7735095981673703,-0.1685789341529288
-0.0024722775,0.7708556392342246,-0.1725495511227929
-0.0024716475,0.768201680301079,-0.1751966291027034
-0.0024710175,0.7665429559678643,-0.181483439304981
-0.0024703875,0.7638889970347195,-0.1837996325374001
-0.002469757500000001,0.7609032932349329,-0.1877702495072597
-0.0024691275,0.7589128240350729,-0.1907482122346575
-0.0024684975,0.7562588651019281,-0.1957114834469842
-0.0024678675,0.7546001407687133,-0.2006747546593086
-0.0024672375,0.7512826921022815,-0.2036527173867069
-0.0024666075,0.7489604780357787,-0.207623334356569
-0.0024659775,0.746638263969278,-0.2092777580940105
-0.0024653475,0.7436525601694901,-0.2145719140538256
-0.0024647175,0.7409986012363441,-0.2182116462762002
-0.0024640875,0.7383446423032005,-0.2218513784985715
-0.0024634575,0.7360224282366987,-0.2278073039533635
-0.002462827500000001,0.7333684693035551,-0.2331014599131762
-0.0024621975,0.7300510206371229,-0.2331014599131787
-0.0024615675,0.7287240411705489,-0.2370720768830423
-0.0024609375,0.7254065925041194,-0.2420353480953667
-0.0024603075,0.7237478681709039,-0.246667734560205
-0.0024596775,0.7204304195044711,-0.2503074667825785
-0.0024590475,0.7164494811047556,-0.2516310057725317
-0.0024584175,0.7154542465048264,-0.2575869312273237
-0.002457787500000001,0.7121367978383968,-0.2608957787022067
-0.0024571575,0.7091510940386073,-0.2632119719346273
-0.0024565275,0.7068288799721056,-0.2675134736519771
-0.0024558975,0.7031796864390315,-0.2724767448643038
-0.0024552675,0.7005257275058866,-0.2781017855716074
-0.0024546375,0.6982035134393837,-0.2797562093090513
-0.0024540075,0.6955495545062401,-0.2833959415314226
-0.0024533775,0.6915686161065229,-0.2883592127437493
-0.002452747500000001,0.6889146571733793,-0.2910062907236556
-0.0024521175,0.6862606982402332,-0.2953077924410066
-0.0024514875,0.6832749944404453,-0.2982857551684027
-0.0024508575,0.6806210355073005,-0.3032490263807294
-0.0024502275,0.6782988214407987,-0.3049034501181716
-0.0024495975,0.6756448625076523,-0.3108593755729656
-0.0024489675,0.6723274138412229,-0.3151608772903134
-0.0024483375,0.6686782203081487,-0.3164844162802672
-0.002447707500000001,0.6660242613750051,-0.3207859179976151
-0.0024470775,0.6643655370417884,-0.3267418434524091
-0.0024464475,0.6610480883753573,-0.3293889214323166
-0.0024458175,0.6580623845755708,-0.3330286536546879
-0.0024451875,0.6560719153757107,-0.3369992706245509
-0.0024445575,0.6517592321093496,-0.3396463486044609
-0.0024439275,0.6501005077761349,-0.3449405045642737
-0.0024432975,0.6464513142430608,-0.3472566977966928
-0.002442667500000001,0.6428021207099883,-0.3525508537565055
-0.0024420375,0.6401481617768418,-0.3558597012313924
-0.0024414075,0.6368307131104107,-0.3585067792113
-0.0024407775,0.6345084990439102,-0.3638009351711127
-0.0024401475,0.6295323260442625,-0.3664480131510227
-0.0024395175,0.6275418568444027,-0.3714112843633501
-0.0024388875,0.624887897911259,-0.3730657081007916
-0.0024382575,0.6202434697782556,-0.3767054403231645
-0.002437627500000001,0.6179212557117549,-0.3806760572930241
-0.0024369975,0.6149355519119659,-0.3849775590103757
-0.0024363675,0.6129450827121073,-0.3869628674953063
-0.0024357375,0.6102911237789637,-0.3912643692126542
-0.0024351075,0.6073054199791745,-0.3972202946674482
-0.0024344775,0.6036562264460988,-0.4001982573948455
-0.0024338475,0.6003387777796694,-0.4031762201222402
-0.0024332175,0.5976848188465246,-0.4074777218395901
-0.0024325875,0.5943673701800917,-0.4111174540619648
-0.0024319575,0.5903864317803763,-0.4150880710318243
-0.0024313275,0.5870689831139452,-0.4174042642642435
-0.0024306975,0.5847467690474446,-0.421374881234103
-0.0024300675,0.5797705960477969,-0.4243528439615009
-0.0024294375,0.5771166371146516,-0.4296469999213168
-0.0024288075,0.5757896576480797,-0.4313014236587582
-0.0024281775,0.5714769743817193,-0.4342793863861543
-0.0024275475,0.5684912705819298,-0.4392426575984824
-0.0024269175,0.5651738219155004,-0.4425515050733654
-0.0024262875,0.5615246283824262,-0.4455294678007614
-0.002425657500000001,0.5592024143159257,-0.4498309695181093
-0.0024250275,0.5548897310495642,-0.4538015864879726
-0.0024243975,0.5525675169830607,-0.4577722034578351
-0.0024237675,0.5489183234499883,-0.4604192814377415
-0.0024231375,0.5456008747835572,-0.4627354746701606
-0.0024225075,0.5416199363838384,-0.4633972441651406
-0.0024218775,0.538302487717409,-0.4700149391149065
-0.0024212475,0.5353167839176211,-0.473323786589791
-0.002420617500000001,0.5326628249844775,-0.4779561730546271
-0.0024199875,0.528681886584759,-0.4815959052770021
-0.0024193575,0.525364437918328,-0.4858974069943519
-0.0024187275,0.5207200097853245,-0.4885444849742595
-0.0024180975,0.5180660508521797,-0.4925151019441208
-0.0024174675,0.5150803470523906,-0.4958239494190074
-0.0024168375,0.51275813298589,-0.5004563358838435
-0.0024162075,0.5101041740527452,-0.5021107596212858
-0.002415577500000001,0.5057914907863869,-0.5050887223486805
-0.0024149475,0.5028057869865969,-0.5080666850760779
-0.0024143175,0.4988248485868796,-0.5117064172984508
-0.0024136875,0.4958391447870917,-0.5146843800258468
-0.0024130575,0.4925216961206607,-0.5179932275007313
-0.0024124275,0.4892042474542278,-0.5229564987130595
-0.0024117975,0.4852233090545124,-0.5262653461879424
-0.0024111675,0.4822376052547245,-0.5305668479052922
-0.002410537500000001,0.4792519014549379,-0.532552156390222
-0.0024099075,0.4752709630552193,-0.5371845428550611
-0.0024092775,0.4716217695221452,-0.5401625055824572
-0.0024086475,0.4679725759890727,-0.5424786988148753
-0.0024080175,0.4643233824559969,-0.5444640072998069
-0.0024073875,0.4616694235228501,-0.5484346242696697
-0.0024067575,0.4573567402564917,-0.5514125869970644
-0.0024061275,0.4537075467234176,-0.5537287802294835
-0.002405497500000001,0.4513853326569169,-0.5600155904317611
-0.0024048675,0.4477361391238417,-0.5626626684116716
-0.0024042375,0.442428221257552,-0.565971515886556
-0.0024036075,0.4391107725911225,-0.5696112481089273
-0.0024029775,0.4361250687913331,-0.5722583260888365
-0.0024023475,0.4334711098581866,-0.5762289430586988
-0.0024017175,0.4298219163251141,-0.5782142515436285
-0.0024010875,0.4258409779253969,-0.581523099018513
-0.002400457500000001,0.4221917843923244,-0.5841701769984193
-0.0023998275,0.4188743357258917,-0.5878099092207935
-0.0023991975,0.4155568870594606,-0.5911187566956779
-0.0023985675,0.4119076935263882,-0.5947584889180492
-0.0023979375,0.4079267551266693,-0.5977364516454469
-0.0023973075,0.4039458167269508,-0.6017070686153091
-0.0023966775,0.4012918577938072,-0.6036923771002389
-0.0023960475,0.39731091939409,-0.6076629940701003
-0.0023954175,0.3939934707276574,-0.61196449578745
-0.0023947875,0.3906760220612279,-0.61196449578745
-0.0023941575,0.3866950836615106,-0.6162659975047999
-0.0023935275,0.384041124728367,-0.618582190737218
-0.0023928975,0.3797284414620055,-0.622221922959592
-0.0023922675,0.3760792479289297,-0.6261925399294547
-0.0023916375,0.3724300543958572,-0.6291705026568494
-0.0023910075,0.3691126057294262,-0.63115581114178
-0.0023903775,0.3647999224630641,-0.6341337738691781
-0.0023897475,0.3611507289299917,-0.6387661603340142
-0.0023891175,0.3571697905302744,-0.6420750078088987
-0.002388487500000001,0.353520596997202,-0.6463765095262466
-0.0023878575,0.3505348931974123,-0.6477000485162023
-0.0023872275,0.3462222099310499,-0.650016241748623
-0.0023865975,0.3415777817980485,-0.653325089223506
-0.0023859675,0.3389238228649037,-0.6543177434659713
-0.0023853375,0.3356063741984706,-0.6596118994257886
-0.0023847075,0.3309619460654692,-0.6642442858906247
-0.0023840775,0.326981007665752,-0.6649060553856015
-0.002383447500000001,0.3239953038659654,-0.6678840181129962
-0.0023828175,0.3200143654662468,-0.6698693265979283
-0.0023821875,0.3160334270665296,-0.674832597810255
-0.0023815575,0.314042957866671,-0.6781414452851394
-0.0023809275,0.3090667848670244,-0.6797958690225817
-0.0023802975,0.3057493362005921,-0.6840973707399324
-0.0023796675,0.3030953772674485,-0.6860826792248621
-0.0023790375,0.2974557145345157,-0.6880679877097928
-0.002378407500000001,0.2938065210014433,-0.690384180942211
-0.0023777775,0.2901573274683675,-0.6936930284170965
-0.0023771475,0.2861763890686502,-0.6966709911444925
-0.0023765175,0.2828589404022207,-0.6996489538718871
-0.0023758875,0.2792097468691451,-0.7032886860942614
-0.0023752575,0.275228808469426,-0.7065975335691471
-0.0023746275,0.2712478700697106,-0.7092446115490534
-0.0023739975,0.2672669316699933,-0.7125534590239379
-0.002373367500000001,0.2636177381369209,-0.7152005370038442
-0.0023727375,0.2599685446038451,-0.7165240759937992
-0.0023721075,0.2559876062041278,-0.7188402692262184
-0.0023714775,0.2520066678044124,-0.7208255777111482
-0.0023708475,0.2486892191379795,-0.7228108861960797
-0.0023702175,0.2437130461383313,-0.7277741574084073
-0.0023695875,0.2400638526052588,-0.7297594658933371
-0.0023689575,0.2364146590721847,-0.73339919811571
-0.002368327500000001,0.2327654655391122,-0.7360462760956163
-0.0023676975,0.2294480168726795,-0.7380315845805483
-0.0023670675,0.2261305682062485,-0.7413404320554328
-0.0023664375,0.2214861400732472,-0.7436566252878509
-0.0023658075,0.2175052016735278,-0.745972818520271
-0.0023651775,0.2131925184071664,-0.7499434354901328
-0.0023645475,0.2108703043406657,-0.7509360897325977
-0.0023639175,0.2072211108075916,-0.7549067067024591
-0.0023632875,0.2035719172745149,-0.7578846694298561
-0.0023626575,0.1979322545415847,-0.7602008626622742
-0.0023620275,0.1946148058751536,-0.761524401652228
-0.0023613975,0.1912973572087241,-0.7635097101371577
-0.0023607675,0.1866529290757192,-0.7658259033695778
-0.0023601375,0.183003735542643,-0.7697965203394403
-0.0023595075,0.1786910522762847,-0.7724435983193467
-0.0023588775,0.1753736036098536,-0.7737671373093005
-0.0023582475,0.1707291754768484,-0.7757524457942325
-0.0023576175,0.1667482370771329,-0.7787304085216272
-0.0023569875,0.1621038089441295,-0.7823701407440001
-0.002356357500000001,0.1594498500109859,-0.7846863339764183
-0.0023557275,0.1554689116112674,-0.7886569509462806
-0.0023550975,0.1511562283449056,-0.7893187204412584
-0.0023544675,0.147838779678476,-0.7913040289261882
-0.0023538375,0.1441895861454019,-0.7962673001385149
-0.0023532075,0.139876902879039,-0.7972599543809819
